%!PS-Adobe-3.0 EPSF-3.0
%%BoundingBox: 18 4 534 423
%%HiResBoundingBox: 18.330 4.038 533.040 422.646
%%Title: glps_renderer figure
%%Creator: GL2PS 1.3.8, (C) 1999-2012 C. Geuzaine
%%For: Octave
%%CreationDate: Tue Oct  6 11:56:03 2015
%%LanguageLevel: 3
%%DocumentData: Clean7Bit
%%Pages: 1
%%EndComments
%%BeginProlog
/gl2psdict 64 dict def gl2psdict begin
0 setlinecap 0 setlinejoin
/tryPS3shading false def % set to false to force subdivision
/rThreshold 0.064 def % red component subdivision threshold
/gThreshold 0.034 def % green component subdivision threshold
/bThreshold 0.1 def % blue component subdivision threshold
/BD { bind def } bind def
/C  { setrgbcolor } BD
/G  { 0.082 mul exch 0.6094 mul add exch 0.3086 mul add neg 1.0 add setgray } BD
/W  { setlinewidth } BD
/FC { findfont exch /SH exch def SH scalefont setfont } BD
/SW { dup stringwidth pop } BD
/S  { FC moveto show } BD
/SBC{ FC moveto SW -2 div 0 rmoveto show } BD
/SBR{ FC moveto SW neg 0 rmoveto show } BD
/SCL{ FC moveto 0 SH -2 div rmoveto show } BD
/SCC{ FC moveto SW -2 div SH -2 div rmoveto show } BD
/SCR{ FC moveto SW neg SH -2 div rmoveto show } BD
/STL{ FC moveto 0 SH neg rmoveto show } BD
/STC{ FC moveto SW -2 div SH neg rmoveto show } BD
/STR{ FC moveto SW neg SH neg rmoveto show } BD
/FCT { FC translate 0 0 } BD
/SR  { gsave FCT moveto rotate show grestore } BD
/SBCR{ gsave FCT moveto rotate SW -2 div 0 rmoveto show grestore } BD
/SBRR{ gsave FCT moveto rotate SW neg 0 rmoveto show grestore } BD
/SCLR{ gsave FCT moveto rotate 0 SH -2 div rmoveto show grestore} BD
/SCCR{ gsave FCT moveto rotate SW -2 div SH -2 div rmoveto show grestore} BD
/SCRR{ gsave FCT moveto rotate SW neg SH -2 div rmoveto show grestore} BD
/STLR{ gsave FCT moveto rotate 0 SH neg rmoveto show grestore } BD
/STCR{ gsave FCT moveto rotate SW -2 div SH neg rmoveto show grestore } BD
/STRR{ gsave FCT moveto rotate SW neg SH neg rmoveto show grestore } BD
/P  { newpath 0.0 360.0 arc closepath fill } BD
/LS { newpath moveto } BD
/L  { lineto } BD
/LE { lineto stroke } BD
/T  { newpath moveto lineto lineto closepath fill } BD
/STshfill {
      /b1 exch def /g1 exch def /r1 exch def /y1 exch def /x1 exch def
      /b2 exch def /g2 exch def /r2 exch def /y2 exch def /x2 exch def
      /b3 exch def /g3 exch def /r3 exch def /y3 exch def /x3 exch def
      gsave << /ShadingType 4 /ColorSpace [/DeviceRGB]
      /DataSource [ 0 x1 y1 r1 g1 b1 0 x2 y2 r2 g2 b2 0 x3 y3 r3 g3 b3 ] >>
      shfill grestore } BD
/Tm { 3 -1 roll 8 -1 roll 13 -1 roll add add 3 div
      3 -1 roll 7 -1 roll 11 -1 roll add add 3 div
      3 -1 roll 6 -1 roll 9 -1 roll add add 3 div C T } BD
/STsplit {
      4 index 15 index add 0.5 mul
      4 index 15 index add 0.5 mul
      4 index 15 index add 0.5 mul
      4 index 15 index add 0.5 mul
      4 index 15 index add 0.5 mul
      5 copy 5 copy 25 15 roll
      9 index 30 index add 0.5 mul
      9 index 30 index add 0.5 mul
      9 index 30 index add 0.5 mul
      9 index 30 index add 0.5 mul
      9 index 30 index add 0.5 mul
      5 copy 5 copy 35 5 roll 25 5 roll 15 5 roll
      4 index 10 index add 0.5 mul
      4 index 10 index add 0.5 mul
      4 index 10 index add 0.5 mul
      4 index 10 index add 0.5 mul
      4 index 10 index add 0.5 mul
      5 copy 5 copy 40 5 roll 25 5 roll 15 5 roll 25 5 roll
      STnoshfill STnoshfill STnoshfill STnoshfill } BD
/STnoshfill {
      2 index 8 index sub abs rThreshold gt
      { STsplit }
      { 1 index 7 index sub abs gThreshold gt
        { STsplit }
        { dup 6 index sub abs bThreshold gt
          { STsplit }
          { 2 index 13 index sub abs rThreshold gt
            { STsplit }
            { 1 index 12 index sub abs gThreshold gt
              { STsplit }
              { dup 11 index sub abs bThreshold gt
                { STsplit }
                { 7 index 13 index sub abs rThreshold gt
                  { STsplit }
                  { 6 index 12 index sub abs gThreshold gt
                    { STsplit }
                    { 5 index 11 index sub abs bThreshold gt
                      { STsplit }
                      { Tm }
                      ifelse }
                    ifelse }
                  ifelse }
                ifelse }
              ifelse }
            ifelse }
          ifelse }
        ifelse }
      ifelse } BD
tryPS3shading
{ /shfill where
  { /ST { STshfill } BD }
  { /ST { STnoshfill } BD }
  ifelse }
{ /ST { STnoshfill } BD }
ifelse
end
%%EndProlog
%%BeginSetup
/DeviceRGB setcolorspace
gl2psdict begin
%%EndSetup
%%Page: 1 1
%%BeginPageSetup
%%EndPageSetup
mark
gsave
1.0 1.0 scale
1 1 1 C
521.28 47.52 521.28 398 521.28 47.52 T
521.28 47.52 521.28 398 521.28 398 T
74.88 398 521.28 398 74.88 398 T
74.88 398 521.28 398 521.28 398 T
74.88 398 521.28 47.52 74.88 47.52 T
74.88 398 521.28 398 521.28 47.52 T
0.5 W
[16 0] 0 setdash
0 0 0 C
74.88 47.52 LS
521.28 47.52 LE
74.88 398 LS
521.28 398 LE
74.88 398 LS
521.28 398 LE
74.88 47.52 LS
521.28 47.52 LE
74.88 47.52 LS
74.88 398 LE
521.28 47.52 LS
521.28 398 LE
521.28 47.52 LS
521.28 398 LE
74.88 47.52 LS
74.88 398 L
74.88 398 LE
521.28 398 LS
521.28 398 LE
521.28 47.52 LS
521.28 47.52 LE
74.88 47.52 LS
74.88 47.52 L
74.88 51.9901 LE
74.88 398 LS
74.88 393.53 LE
138.651 47.52 LS
138.651 51.9901 LE
138.651 398 LS
138.651 393.53 LE
202.423 47.52 LS
202.423 51.9901 LE
202.423 398 LS
202.423 393.53 LE
266.194 47.52 LS
266.194 51.9901 LE
266.194 398 LS
266.194 393.53 LE
329.966 47.52 LS
329.966 51.9901 LE
329.966 398 LS
329.966 393.53 LE
393.737 47.52 LS
393.737 51.9901 LE
393.737 398 LS
393.737 393.53 LE
457.509 47.52 LS
457.509 51.9901 LE
457.509 398 LS
457.509 393.53 LE
521.28 47.52 LS
521.28 51.9901 LE
521.28 398 LS
521.28 393.53 LE
(0) 74.88 42.5131 15 /Helvetica STC
(100) 138.651 42.5131 15 /Helvetica STC
(200) 202.423 42.5131 15 /Helvetica STC
(300) 266.194 42.5131 15 /Helvetica STC
(400) 329.966 42.5131 15 /Helvetica STC
(500) 393.737 42.5131 15 /Helvetica STC
(600) 457.509 42.5131 15 /Helvetica STC
(700) 521.28 42.5131 15 /Helvetica STC
74.88 47.52 LS
79.348 47.52 LE
521.28 47.52 LS
516.812 47.52 LE
74.88 97.5885 LS
79.348 97.5885 LE
521.28 97.5885 LS
516.812 97.5885 LE
74.88 147.657 LS
79.348 147.657 LE
521.28 147.657 LS
516.812 147.657 LE
74.88 197.726 LS
79.348 197.726 LE
521.28 197.726 LS
516.812 197.726 LE
74.88 247.794 LS
79.348 247.794 LE
521.28 247.794 LS
516.812 247.794 LE
74.88 297.863 LS
79.348 297.863 LE
521.28 297.863 LS
516.812 297.863 LE
74.88 347.931 LS
79.348 347.931 LE
521.28 347.931 LS
516.812 347.931 LE
74.88 398 LS
79.348 398 LE
521.28 398 LS
516.812 398 LE
(1e-7) 69.8755 47.52 15 /Helvetica SCR
(1e-6) 69.8755 97.5885 15 /Helvetica SCR
(1e-5) 69.8755 147.657 15 /Helvetica SCR
(1e-4) 69.8755 197.726 15 /Helvetica SCR
(1e-3) 69.8755 247.794 15 /Helvetica SCR
(1e-2) 69.8755 297.863 15 /Helvetica SCR
(1e-1) 69.8755 347.931 15 /Helvetica SCR
(1e+0) 69.8755 398 15 /Helvetica SCR
74.88 62.5921 LS
77.114 62.5921 LE
521.28 62.5921 LS
519.046 62.5921 LE
74.88 71.4088 LS
77.114 71.4088 LE
521.28 71.4088 LS
519.046 71.4088 LE
74.88 77.6642 LS
77.114 77.6642 LE
521.28 77.6642 LS
519.046 77.6642 LE
74.88 82.5164 LS
77.114 82.5164 LE
521.28 82.5164 LS
519.046 82.5164 LE
74.88 86.4809 LS
77.114 86.4809 LE
521.28 86.4809 LS
519.046 86.4809 LE
74.88 89.8328 LS
77.114 89.8328 LE
521.28 89.8328 LS
519.046 89.8328 LE
74.88 92.7364 LS
77.114 92.7364 LE
521.28 92.7364 LS
519.046 92.7364 LE
74.88 95.2976 LS
77.114 95.2976 LE
521.28 95.2976 LS
519.046 95.2976 LE
74.88 112.661 LS
77.114 112.661 LE
521.28 112.661 LS
519.046 112.661 LE
74.88 121.477 LS
77.114 121.477 LE
521.28 121.477 LS
519.046 121.477 LE
74.88 127.733 LS
77.114 127.733 LE
521.28 127.733 LS
519.046 127.733 LE
74.88 132.585 LS
77.114 132.585 LE
521.28 132.585 LS
519.046 132.585 LE
74.88 136.549 LS
77.114 136.549 LE
521.28 136.549 LS
519.046 136.549 LE
74.88 139.901 LS
77.114 139.901 LE
521.28 139.901 LS
519.046 139.901 LE
74.88 142.805 LS
77.114 142.805 LE
521.28 142.805 LS
519.046 142.805 LE
74.88 145.366 LS
77.114 145.366 LE
521.28 145.366 LS
519.046 145.366 LE
74.88 162.729 LS
77.114 162.729 LE
521.28 162.729 LS
519.046 162.729 LE
74.88 171.546 LS
77.114 171.546 LE
521.28 171.546 LS
519.046 171.546 LE
74.88 177.801 LS
77.114 177.801 LE
521.28 177.801 LS
519.046 177.801 LE
74.88 182.654 LS
77.114 182.654 LE
521.28 182.654 LS
519.046 182.654 LE
74.88 186.618 LS
77.114 186.618 LE
521.28 186.618 LS
519.046 186.618 LE
74.88 189.97 LS
77.114 189.97 LE
521.28 189.97 LS
519.046 189.97 LE
74.88 192.874 LS
77.114 192.874 LE
521.28 192.874 LS
519.046 192.874 LE
74.88 195.435 LS
77.114 195.435 LE
521.28 195.435 LS
519.046 195.435 LE
74.88 212.798 LS
77.114 212.798 LE
521.28 212.798 LS
519.046 212.798 LE
74.88 221.614 LS
77.114 221.614 LE
521.28 221.614 LS
519.046 221.614 LE
74.88 227.87 LS
77.114 227.87 LE
521.28 227.87 LS
519.046 227.87 LE
74.88 232.722 LS
77.114 232.722 LE
521.28 232.722 LS
519.046 232.722 LE
74.88 236.687 LS
77.114 236.687 LE
521.28 236.687 LS
519.046 236.687 LE
74.88 240.039 LS
77.114 240.039 LE
521.28 240.039 LS
519.046 240.039 LE
74.88 242.942 LS
77.114 242.942 LE
521.28 242.942 LS
519.046 242.942 LE
74.88 245.503 LS
77.114 245.503 LE
521.28 245.503 LS
519.046 245.503 LE
74.88 262.866 LS
77.114 262.866 LE
521.28 262.866 LS
519.046 262.866 LE
74.88 271.683 LS
77.114 271.683 LE
521.28 271.683 LS
519.046 271.683 LE
74.88 277.939 LS
77.114 277.939 LE
521.28 277.939 LS
519.046 277.939 LE
74.88 282.791 LS
77.114 282.791 LE
521.28 282.791 LS
519.046 282.791 LE
74.88 286.755 LS
77.114 286.755 LE
521.28 286.755 LS
519.046 286.755 LE
74.88 290.107 LS
77.114 290.107 LE
521.28 290.107 LS
519.046 290.107 LE
74.88 293.011 LS
77.114 293.011 LE
521.28 293.011 LS
519.046 293.011 LE
74.88 295.572 LS
77.114 295.572 LE
521.28 295.572 LS
519.046 295.572 LE
74.88 312.935 LS
77.114 312.935 LE
521.28 312.935 LS
519.046 312.935 LE
74.88 321.752 LS
77.114 321.752 LE
521.28 321.752 LS
519.046 321.752 LE
74.88 328.007 LS
77.114 328.007 LE
521.28 328.007 LS
519.046 328.007 LE
74.88 332.859 LS
77.114 332.859 LE
521.28 332.859 LS
519.046 332.859 LE
74.88 336.824 LS
77.114 336.824 LE
521.28 336.824 LS
519.046 336.824 LE
74.88 340.176 LS
77.114 340.176 LE
521.28 340.176 LS
519.046 340.176 LE
74.88 343.079 LS
77.114 343.079 LE
521.28 343.079 LS
519.046 343.079 LE
74.88 345.64 LS
77.114 345.64 LE
521.28 345.64 LS
519.046 345.64 LE
74.88 363.004 LS
77.114 363.004 LE
521.28 363.004 LS
519.046 363.004 LE
74.88 371.82 LS
77.114 371.82 LE
521.28 371.82 LS
519.046 371.82 LE
74.88 378.076 LS
77.114 378.076 LE
521.28 378.076 LS
519.046 378.076 LE
74.88 382.928 LS
77.114 382.928 LE
521.28 382.928 LS
519.046 382.928 LE
74.88 386.892 LS
77.114 386.892 LE
521.28 386.892 LS
519.046 386.892 LE
74.88 390.244 LS
77.114 390.244 LE
521.28 390.244 LS
519.046 390.244 LE
74.88 393.148 LS
77.114 393.148 LE
521.28 393.148 LS
519.046 393.148 LE
74.88 395.709 LS
77.114 395.709 LE
521.28 395.709 LS
519.046 395.709 LE
(Iteration number) 298.08 24.5131 20 /Helvetica STC
(Maximum change in solution) 90 32.8755 222.76 20 /Helvetica SBCR
(Effect of w in convergence) 298.08 408 20 /Helvetica SBC
2 W
[] 0 setdash
75.5177 388.88 LS
76.1554 364.695 L
76.7932 353.781 L
77.4308 345.76 L
78.0686 338.152 L
78.7063 333.423 L
79.344 330.213 L
79.9817 326.888 L
80.6194 323.647 L
81.2571 320.556 L
81.8949 317.63 L
82.5326 315.684 L
83.1703 313.78 L
83.808 311.883 L
84.4457 310.013 L
85.0834 308.182 L
85.7211 306.395 L
86.3589 304.655 L
86.9966 303.16 L
87.6343 301.87 L
88.272 300.582 L
88.9097 299.304 L
89.5474 298.038 L
90.1851 296.787 L
90.8229 295.554 L
91.4606 294.337 L
92.0983 293.14 L
92.736 292.02 L
93.3737 291.052 L
94.0114 290.087 L
94.6491 289.126 L
95.2869 288.171 L
95.9246 287.223 L
96.5623 286.282 L
97.2 285.349 L
97.8377 284.424 L
98.4754 283.508 L
99.1131 282.6 L
99.7509 281.742 L
100.389 280.965 L
101.026 280.191 L
101.664 279.419 L
102.302 278.65 L
102.939 277.885 L
103.577 277.123 L
104.215 276.366 L
104.853 275.612 L
105.49 274.863 L
106.128 274.118 L
106.766 273.378 L
107.403 272.642 L
108.041 271.966 L
108.679 271.312 L
109.317 270.658 L
109.954 270.007 L
110.592 269.357 L
111.23 268.709 L
111.867 268.063 L
112.505 267.419 L
113.143 266.778 L
113.781 266.139 L
114.418 265.502 L
115.056 264.867 L
115.694 264.235 L
116.331 263.605 L
116.969 262.996 L
117.607 262.419 L
118.245 261.843 L
118.882 261.268 L
119.52 260.693 L
120.158 260.119 L
120.795 259.546 L
121.433 258.974 L
122.071 258.403 L
122.709 257.832 L
123.346 257.263 L
123.984 256.694 L
124.622 256.126 L
125.259 255.559 L
125.897 254.993 L
126.535 254.428 L
127.173 253.863 L
127.81 253.3 L
128.448 252.76 L
129.086 252.227 L
129.723 251.693 L
130.361 251.16 L
130.999 250.626 L
131.637 250.092 L
132.274 249.558 L
132.912 249.024 L
133.55 248.489 L
134.187 247.955 L
134.825 247.42 L
135.463 246.885 L
136.101 246.351 L
136.738 245.816 L
137.376 245.28 L
138.014 244.745 L
138.651 244.21 L
139.289 243.674 L
139.927 243.138 L
140.565 242.602 L
141.202 242.066 L
141.84 241.53 L
142.478 240.994 L
143.115 240.458 L
143.753 239.921 L
144.391 239.384 L
145.029 238.847 L
145.666 238.31 L
146.304 237.773 L
146.942 237.235 L
147.579 236.699 L
148.217 236.172 L
148.855 235.644 L
149.493 235.115 L
150.13 234.586 L
150.768 234.056 L
151.406 233.526 L
152.043 232.995 L
152.681 232.464 L
153.319 231.932 L
153.957 231.399 L
154.594 230.866 L
155.232 230.333 L
155.87 229.799 L
156.507 229.264 L
157.145 228.729 L
157.783 228.193 L
158.421 227.657 L
159.058 227.121 L
159.696 226.583 L
160.334 226.046 L
160.971 225.521 L
161.609 225.037 L
162.247 224.553 L
162.885 224.07 L
163.522 223.586 L
164.16 223.103 L
164.798 222.62 L
165.435 222.137 L
166.073 221.655 L
166.711 221.173 L
167.349 220.691 L
167.986 220.209 L
168.624 219.728 L
169.262 219.246 L
169.899 218.766 L
170.537 218.285 L
171.175 217.804 L
171.813 217.324 L
172.45 216.845 L
173.088 216.365 L
173.726 215.886 L
174.363 215.407 L
175.001 214.928 L
175.639 214.45 L
176.277 213.972 L
176.914 213.494 L
177.552 213.016 L
178.19 212.539 L
178.827 212.062 L
179.465 211.586 L
180.103 211.11 L
180.741 210.634 L
181.378 210.158 L
182.016 209.683 L
182.654 209.208 L
183.291 208.734 L
183.929 208.26 L
184.567 207.786 L
185.205 207.312 L
185.842 206.839 L
186.48 206.367 L
187.118 205.894 L
187.755 205.422 L
188.393 204.951 L
189.031 204.48 L
189.669 204.009 L
190.306 203.538 L
190.944 203.068 L
191.582 202.599 L
192.219 202.129 L
192.857 201.66 L
193.495 201.192 L
194.133 200.724 L
194.77 200.256 L
195.408 199.789 L
196.046 199.322 L
196.683 198.856 L
197.321 198.39 L
197.959 197.924 L
198.597 197.459 L
199.234 196.994 L
199.872 196.53 L
200.51 196.066 L
201.147 195.603 L
201.785 195.14 L
202.423 194.677 L
203.061 194.215 L
203.698 193.754 L
204.336 193.293 L
204.974 192.832 L
205.611 192.372 L
206.249 191.912 L
206.887 191.453 L
207.525 190.994 L
208.162 190.536 L
208.8 190.078 L
209.438 189.62 L
210.075 189.164 L
210.713 188.707 L
211.351 188.252 L
211.989 187.796 L
212.626 187.341 L
213.264 186.887 L
213.902 186.433 L
214.539 185.98 L
215.177 185.527 L
215.815 185.075 L
216.453 184.623 L
217.09 184.172 L
217.728 183.721 L
218.366 183.271 L
219.003 182.822 L
219.641 182.373 L
220.279 181.924 L
220.917 181.476 L
221.554 181.029 L
222.192 180.582 L
222.83 180.135 L
223.467 179.69 L
224.105 179.245 L
224.743 178.8 L
225.381 178.356 L
226.018 177.912 L
226.656 177.469 L
227.294 177.027 L
227.931 176.585 L
228.569 176.144 L
229.207 175.704 L
229.845 175.264 L
230.482 174.824 L
231.12 174.385 L
231.758 173.947 L
232.395 173.51 L
233.033 173.073 L
233.671 172.636 L
234.309 172.201 L
234.946 171.765 L
235.584 171.331 L
236.222 170.897 L
236.859 170.464 L
237.497 170.031 L
238.135 169.599 L
238.773 169.168 L
239.41 168.737 L
240.048 168.307 L
240.686 167.877 L
241.323 167.448 L
241.961 167.02 L
242.599 166.592 L
243.237 166.165 L
243.874 165.739 L
244.512 165.314 L
245.15 164.889 L
245.787 164.464 L
246.425 164.04 L
247.063 163.617 L
247.701 163.195 L
248.338 162.773 L
248.976 162.352 L
249.614 161.932 L
250.251 161.512 L
250.889 161.093 L
251.527 160.675 L
252.165 160.257 L
252.802 159.84 L
253.44 159.424 L
254.078 159.009 L
254.715 158.594 L
255.353 158.179 L
255.991 157.766 L
256.629 157.353 L
257.266 156.941 L
257.904 156.529 L
258.542 156.119 L
259.179 155.709 L
259.817 155.299 L
260.455 154.891 L
261.093 154.483 L
261.73 154.075 L
262.368 153.669 L
263.006 153.263 L
263.643 152.858 L
264.281 152.453 L
264.919 152.049 L
265.557 151.646 L
266.194 151.244 L
266.832 150.842 L
267.47 150.442 L
268.107 150.041 L
268.745 149.642 L
269.383 149.243 L
270.021 148.845 L
270.658 148.448 L
271.296 148.051 L
271.934 147.655 L
272.571 147.26 L
273.209 146.866 L
273.847 146.472 L
274.485 146.079 L
275.122 145.687 L
275.76 145.295 L
276.398 144.904 L
277.035 144.514 L
277.673 144.125 L
278.311 143.736 L
278.949 143.348 L
279.586 142.961 L
280.224 142.574 L
280.862 142.189 L
281.499 141.803 L
282.137 141.419 L
282.775 141.036 L
283.413 140.653 L
284.05 140.27 L
284.688 139.889 L
285.326 139.508 L
285.963 139.128 L
286.601 138.749 L
287.239 138.37 L
287.877 137.992 L
288.514 137.615 L
289.152 137.239 L
289.79 136.863 L
290.427 136.488 L
291.065 136.114 L
291.703 135.74 L
292.341 135.367 L
292.978 134.995 L
293.616 134.624 L
294.254 134.253 L
294.891 133.883 L
295.529 133.514 L
296.167 133.145 L
296.805 132.777 L
297.442 132.41 L
298.08 132.044 L
298.718 131.678 L
299.355 131.313 L
299.993 130.948 L
300.631 130.585 L
301.269 130.222 L
301.906 129.859 L
302.544 129.498 L
303.182 129.137 L
303.819 128.776 L
304.457 128.417 L
305.095 128.058 L
305.733 127.7 L
306.37 127.342 L
307.008 126.986 L
307.646 126.629 L
308.283 126.274 L
308.921 125.919 L
309.559 125.565 L
310.197 125.212 L
310.834 124.859 L
311.472 124.507 L
312.11 124.155 L
312.747 123.804 L
313.385 123.454 L
314.023 123.105 L
314.661 122.756 L
315.298 122.408 L
315.936 122.06 L
316.574 121.714 L
317.211 121.367 L
317.849 121.022 L
318.487 120.677 L
319.125 120.333 L
319.762 119.989 L
320.4 119.646 L
321.038 119.304 L
321.675 118.962 L
322.313 118.621 L
322.951 118.28 L
323.589 117.94 L
324.226 117.601 L
324.864 117.262 L
325.502 116.924 L
326.139 116.587 L
326.777 116.25 L
327.415 115.914 L
328.053 115.578 L
328.69 115.243 L
329.328 114.909 L
329.966 114.575 L
330.603 114.242 L
331.241 113.909 L
331.879 113.577 L
332.517 113.245 L
333.154 112.915 L
333.792 112.584 L
334.43 112.254 L
335.067 111.925 L
335.705 111.597 L
336.343 111.269 L
336.981 110.941 L
337.618 110.614 L
338.256 110.288 L
338.894 109.962 L
339.531 109.636 L
340.169 109.312 L
340.807 108.987 L
341.445 108.664 L
342.082 108.341 L
342.72 108.018 L
343.358 107.696 L
343.995 107.374 L
344.633 107.053 L
345.271 106.733 L
345.909 106.413 L
346.546 106.093 L
347.184 105.774 L
347.822 105.456 L
348.459 105.138 L
349.097 104.82 L
349.735 104.503 L
350.373 104.187 L
351.01 103.871 L
351.648 103.556 L
352.286 103.24 L
352.923 102.926 L
353.561 102.612 L
354.199 102.298 L
354.837 101.985 L
355.474 101.673 L
356.112 101.36 L
356.75 101.049 L
357.387 100.737 L
358.025 100.427 L
358.663 100.116 L
359.301 99.8063 L
359.938 99.4968 L
360.576 99.1878 L
361.214 98.8792 L
361.851 98.5711 L
362.489 98.2634 L
363.127 97.9561 L
363.765 97.6493 L
364.402 97.3428 L
365.04 97.0368 L
365.678 96.7312 L
366.315 96.426 L
366.953 96.1213 L
367.591 95.8169 L
368.229 95.513 L
368.866 95.2094 L
369.504 94.9063 L
370.142 94.6035 L
370.779 94.3011 L
371.417 93.9992 L
372.055 93.6976 L
372.693 93.3964 L
373.33 93.0955 L
373.968 92.7951 L
374.606 92.495 L
375.243 92.1953 L
375.881 91.896 L
376.519 91.597 L
377.157 91.2984 L
377.794 91.0002 L
378.432 90.7023 L
379.07 90.4048 L
379.707 90.1076 L
380.345 89.8107 L
380.983 89.5142 L
381.621 89.2181 L
382.258 88.9223 L
382.896 88.6268 L
383.534 88.3317 L
384.171 88.0369 L
384.809 87.7424 L
385.447 87.4482 L
386.085 87.1544 L
386.722 86.8609 L
387.36 86.5677 L
387.998 86.2748 L
388.635 85.9822 L
389.273 85.69 L
389.911 85.398 L
390.549 85.1064 L
391.186 84.815 L
391.824 84.524 L
392.462 84.2332 L
393.099 83.9427 L
393.737 83.6526 L
394.375 83.3627 L
395.013 83.0731 L
395.65 82.7838 L
396.288 82.4947 L
396.926 82.206 L
397.563 81.9175 L
398.201 81.6293 L
398.839 81.3413 L
399.477 81.0537 L
400.114 80.7663 L
400.752 80.4791 L
401.39 80.1922 L
402.027 79.9056 L
402.665 79.6192 L
403.303 79.3331 L
403.941 79.0473 L
404.578 78.7616 L
405.216 78.4763 L
405.854 78.1911 L
406.491 77.9062 L
407.129 77.6216 L
407.767 77.3372 L
408.405 77.053 L
409.042 76.7691 L
409.68 76.4854 L
410.318 76.2019 L
410.955 75.9186 L
411.593 75.6356 L
412.231 75.3528 L
412.869 75.0702 L
413.506 74.7878 L
414.144 74.5057 L
414.782 74.2237 L
415.419 73.942 L
416.057 73.6605 L
416.695 73.3791 L
417.333 73.0981 L
417.97 72.8171 L
418.608 72.5364 L
419.246 72.2559 L
419.883 71.9756 L
420.521 71.6955 L
421.159 71.4156 L
421.797 71.1359 L
422.434 70.8563 L
423.072 70.577 L
423.71 70.2978 L
424.347 70.0189 L
424.985 69.7401 L
425.623 69.4614 L
426.261 69.183 L
426.898 68.9047 L
427.536 68.6267 L
428.174 68.3487 L
428.811 68.071 L
429.449 67.7934 L
430.087 67.516 L
430.725 67.2388 L
431.362 66.9617 L
432 66.6848 L
432.638 66.4081 L
433.275 66.1315 L
433.913 65.8551 L
434.551 65.5788 L
435.189 65.3027 L
435.826 65.0268 L
436.464 64.751 L
437.102 64.4753 L
437.739 64.1998 L
438.377 63.9244 L
439.015 63.6492 L
439.653 63.3741 L
440.29 63.0992 L
440.928 62.8244 L
441.566 62.5765 L
442.203 62.3304 L
442.841 62.084 L
443.479 61.8375 L
444.117 61.5908 L
444.754 61.3439 L
445.392 61.0968 L
446.03 60.8495 L
446.667 60.6021 L
447.305 60.3544 L
447.943 60.1066 L
448.581 59.8587 L
449.218 59.6105 L
449.856 59.3622 L
450.494 59.1138 L
451.131 58.8651 L
451.769 58.6164 L
452.407 58.3674 L
453.045 58.1183 L
453.682 57.8691 L
454.32 57.6196 L
454.958 57.3701 L
455.595 57.1204 L
456.233 56.8706 L
456.871 56.6205 L
457.509 56.3704 L
458.146 56.1201 L
458.784 55.8697 L
459.422 55.6192 L
460.059 55.3685 L
460.697 55.1176 L
461.335 54.8667 L
461.973 54.6156 L
462.61 54.3644 L
463.248 54.113 L
463.886 53.8616 L
464.523 53.61 L
465.161 53.3582 L
465.799 53.1064 L
466.437 52.8544 L
467.074 52.6024 L
467.712 52.3502 L
468.35 52.0979 L
468.987 51.8454 L
469.625 51.5929 L
470.263 51.3403 L
470.901 51.0875 L
471.538 50.8347 L
472.176 50.5817 L
472.814 50.3286 L
473.451 50.0754 L
474.089 49.8221 L
474.727 49.5687 L
475.365 49.3152 L
476.002 49.0616 L
476.64 48.808 L
477.278 48.5542 L
477.915 48.3003 L
478.553 48.0463 L
479.191 47.7922 L
479.829 47.5381 L
480.466 47.2838 LE
[12 4] 0 setdash
75.5177 396.734 LS
76.1554 380.338 L
76.7932 363.814 L
77.4308 350.598 L
78.0686 342.404 L
78.7063 335.556 L
79.344 331.474 L
79.9817 328.586 L
80.6194 325.15 L
81.2571 321.82 L
81.8949 318.876 L
82.5326 316.642 L
83.1703 314.361 L
83.808 312.101 L
84.4457 309.885 L
85.0834 307.769 L
85.7211 306.059 L
86.3589 304.343 L
86.9966 302.634 L
87.6343 300.939 L
88.272 299.264 L
88.9097 297.667 L
89.5474 296.279 L
90.1851 294.889 L
90.8229 293.504 L
91.4606 292.125 L
92.0983 290.755 L
92.736 289.396 L
93.3737 288.139 L
94.0114 286.956 L
94.6491 285.773 L
95.2869 284.593 L
95.9246 283.417 L
96.5623 282.245 L
97.2 281.079 L
97.8377 279.939 L
98.4754 278.893 L
99.1131 277.846 L
99.7509 276.8 L
100.389 275.754 L
101.026 274.709 L
101.664 273.666 L
102.302 272.625 L
102.939 271.586 L
103.577 270.608 L
104.215 269.641 L
104.853 268.672 L
105.49 267.701 L
106.128 266.728 L
106.766 265.753 L
107.403 264.776 L
108.041 263.798 L
108.679 262.819 L
109.317 261.837 L
109.954 260.855 L
110.592 259.888 L
111.23 258.939 L
111.867 257.986 L
112.505 257.029 L
113.143 256.069 L
113.781 255.105 L
114.418 254.138 L
115.056 253.167 L
115.694 252.193 L
116.331 251.216 L
116.969 250.236 L
117.607 249.253 L
118.245 248.267 L
118.882 247.278 L
119.52 246.286 L
120.158 245.291 L
120.795 244.293 L
121.433 243.292 L
122.071 242.288 L
122.709 241.281 L
123.346 240.271 L
123.984 239.258 L
124.622 238.39 L
125.259 237.551 L
125.897 236.714 L
126.535 235.878 L
127.173 235.043 L
127.81 234.209 L
128.448 233.377 L
129.086 232.546 L
129.723 231.716 L
130.361 230.888 L
130.999 230.061 L
131.637 229.236 L
132.274 228.412 L
132.912 227.59 L
133.55 226.769 L
134.187 225.949 L
134.825 225.132 L
135.463 224.316 L
136.101 223.501 L
136.738 222.688 L
137.376 221.877 L
138.014 221.067 L
138.651 220.259 L
139.289 219.453 L
139.927 218.649 L
140.565 217.846 L
141.202 217.045 L
141.84 216.246 L
142.478 215.448 L
143.115 214.653 L
143.753 213.859 L
144.391 213.067 L
145.029 212.277 L
145.666 211.489 L
146.304 210.703 L
146.942 209.919 L
147.579 209.136 L
148.217 208.356 L
148.855 207.578 L
149.493 206.801 L
150.13 206.027 L
150.768 205.254 L
151.406 204.484 L
152.043 203.716 L
152.681 202.949 L
153.319 202.185 L
153.957 201.423 L
154.594 200.663 L
155.232 199.905 L
155.87 199.149 L
156.507 198.396 L
157.145 197.644 L
157.783 196.895 L
158.421 196.148 L
159.058 195.403 L
159.696 194.66 L
160.334 193.919 L
160.971 193.181 L
161.609 192.445 L
162.247 191.711 L
162.885 190.979 L
163.522 190.25 L
164.16 189.522 L
164.798 188.797 L
165.435 188.074 L
166.073 187.354 L
166.711 186.635 L
167.349 185.919 L
167.986 185.206 L
168.624 184.494 L
169.262 183.785 L
169.899 183.078 L
170.537 182.373 L
171.175 181.671 L
171.813 180.97 L
172.45 180.272 L
173.088 179.577 L
173.726 178.883 L
174.363 178.192 L
175.001 177.503 L
175.639 176.817 L
176.277 176.133 L
176.914 175.451 L
177.552 174.771 L
178.19 174.093 L
178.827 173.418 L
179.465 172.745 L
180.103 172.074 L
180.741 171.405 L
181.378 170.739 L
182.016 170.075 L
182.654 169.413 L
183.291 168.753 L
183.929 168.095 L
184.567 167.44 L
185.205 166.787 L
185.842 166.135 L
186.48 165.487 L
187.118 164.84 L
187.755 164.195 L
188.393 163.553 L
189.031 162.912 L
189.669 162.274 L
190.306 161.637 L
190.944 161.003 L
191.582 160.371 L
192.219 159.741 L
192.857 159.113 L
193.495 158.487 L
194.133 157.863 L
194.77 157.241 L
195.408 156.621 L
196.046 156.003 L
196.683 155.386 L
197.321 154.772 L
197.959 154.16 L
198.597 153.549 L
199.234 152.941 L
199.872 152.334 L
200.51 151.729 L
201.147 151.126 L
201.785 150.525 L
202.423 149.926 L
203.061 149.328 L
203.698 148.732 L
204.336 148.138 L
204.974 147.546 L
205.611 146.955 L
206.249 146.366 L
206.887 145.779 L
207.525 145.194 L
208.162 144.61 L
208.8 144.027 L
209.438 143.447 L
210.075 142.868 L
210.713 142.29 L
211.351 141.714 L
211.989 141.14 L
212.626 140.567 L
213.264 139.995 L
213.902 139.425 L
214.539 138.857 L
215.177 138.29 L
215.815 137.724 L
216.453 137.16 L
217.09 136.597 L
217.728 136.036 L
218.366 135.476 L
219.003 134.917 L
219.641 134.36 L
220.279 133.804 L
220.917 133.249 L
221.554 132.696 L
222.192 132.143 L
222.83 131.592 L
223.467 131.043 L
224.105 130.494 L
224.743 129.947 L
225.381 129.4 L
226.018 128.855 L
226.656 128.311 L
227.294 127.769 L
227.931 127.227 L
228.569 126.686 L
229.207 126.147 L
229.845 125.608 L
230.482 125.071 L
231.12 124.535 L
231.758 123.999 L
232.395 123.465 L
233.033 122.931 L
233.671 122.399 L
234.309 121.867 L
234.946 121.337 L
235.584 120.807 L
236.222 120.278 L
236.859 119.751 L
237.497 119.224 L
238.135 118.698 L
238.773 118.172 L
239.41 117.648 L
240.048 117.124 L
240.686 116.602 L
241.323 116.08 L
241.961 115.558 L
242.599 115.038 L
243.237 114.518 L
243.874 113.999 L
244.512 113.481 L
245.15 112.973 L
245.787 112.55 L
246.425 112.125 L
247.063 111.7 L
247.701 111.273 L
248.338 110.844 L
248.976 110.415 L
249.614 109.985 L
250.251 109.553 L
250.889 109.121 L
251.527 108.687 L
252.165 108.252 L
252.802 107.817 L
253.44 107.38 L
254.078 106.943 L
254.715 106.504 L
255.353 106.065 L
255.991 105.625 L
256.629 105.184 L
257.266 104.742 L
257.904 104.299 L
258.542 103.855 L
259.179 103.411 L
259.817 102.966 L
260.455 102.52 L
261.093 102.074 L
261.73 101.626 L
262.368 101.178 L
263.006 100.73 L
263.643 100.28 L
264.281 99.8305 L
264.919 99.38 L
265.557 98.9288 L
266.194 98.477 L
266.832 98.0246 L
267.47 97.5716 L
268.107 97.1181 L
268.745 96.664 L
269.383 96.2095 L
270.021 95.7543 L
270.658 95.2987 L
271.296 94.8425 L
271.934 94.3859 L
272.571 93.9288 L
273.209 93.4712 L
273.847 93.0131 L
274.485 92.5546 L
275.122 92.0957 L
275.76 91.6363 L
276.398 91.1765 L
277.035 90.7163 L
277.673 90.2557 L
278.311 89.7947 L
278.949 89.3333 L
279.586 88.8716 L
280.224 88.4094 L
280.862 87.947 L
281.499 87.4841 L
282.137 87.021 L
282.775 86.5574 L
283.413 86.0936 L
284.05 85.6294 L
284.688 85.1649 L
285.326 84.7002 L
285.963 84.235 L
286.601 83.7697 L
287.239 83.304 L
287.877 82.838 L
288.514 82.3718 L
289.152 81.9053 L
289.79 81.4385 L
290.427 80.9715 L
291.065 80.5042 L
291.703 80.0367 L
292.341 79.5689 L
292.978 79.1008 L
293.616 78.6326 L
294.254 78.1641 L
294.891 77.6954 L
295.529 77.2265 L
296.167 76.7574 L
296.805 76.288 L
297.442 75.8185 L
298.08 75.3487 L
298.718 74.8788 L
299.355 74.4086 L
299.993 73.9383 L
300.631 73.4678 L
301.269 72.9971 L
301.906 72.5262 L
302.544 72.0552 L
303.182 71.584 L
303.819 71.1126 L
304.457 70.6411 L
305.095 70.1694 L
305.733 69.6975 L
306.37 69.2256 L
307.008 68.7534 L
307.646 68.2811 L
308.283 67.8087 L
308.921 67.3361 L
309.559 66.8634 L
310.197 66.3905 L
310.834 65.9175 L
311.472 65.4444 L
312.11 64.9712 L
312.747 64.4978 L
313.385 64.0244 L
314.023 63.5508 L
314.661 63.077 L
315.298 62.6032 L
315.936 62.1293 L
316.574 61.6552 L
317.211 61.1811 L
317.849 60.7068 L
318.487 60.2324 L
319.125 59.758 L
319.762 59.2834 L
320.4 58.8087 L
321.038 58.334 L
321.675 57.8592 L
322.313 57.3842 L
322.951 56.9092 L
323.589 56.4341 L
324.226 55.9589 L
324.864 55.4836 L
325.502 55.0083 L
326.139 54.5329 L
326.777 54.0573 L
327.415 53.5818 L
328.053 53.1061 L
328.69 52.6304 L
329.328 52.1546 L
329.966 51.6787 L
330.603 51.2027 L
331.241 50.7267 L
331.879 50.2506 L
332.517 49.7745 L
333.154 49.2983 L
333.792 48.822 L
334.43 48.3457 L
335.067 47.8693 L
335.705 47.3928 LE
[4 5 1 6] 0 setdash
75.6818 398.35 LS
76.1554 389.58 L
76.7932 377.569 L
77.4308 365.344 L
78.0686 352.886 L
78.7063 341.546 L
79.344 336.303 L
79.9817 331.139 L
80.6194 327.541 L
81.2571 323.802 L
81.8949 320.846 L
82.5326 317.535 L
83.1703 315.246 L
83.808 312.492 L
84.4457 310.263 L
85.0834 308.004 L
85.7211 305.908 L
86.3589 303.715 L
86.9966 301.778 L
87.6343 299.923 L
88.272 298.081 L
88.9097 296.217 L
89.5474 294.417 L
90.1851 292.786 L
90.8229 291.144 L
91.4606 289.491 L
92.0983 287.837 L
92.736 286.273 L
93.3737 284.772 L
94.0114 283.257 L
94.6491 281.731 L
95.2869 280.196 L
95.9246 278.685 L
96.5623 277.237 L
97.2 275.77 L
97.8377 274.285 L
98.4754 272.785 L
99.1131 271.268 L
99.7509 269.738 L
100.389 268.194 L
101.026 266.645 L
101.664 265.12 L
102.302 263.577 L
102.939 262.018 L
103.577 260.443 L
104.215 258.853 L
104.853 257.249 L
105.49 255.63 L
106.128 253.997 L
106.766 252.35 L
107.403 250.69 L
108.041 249.015 L
108.679 247.65 L
109.317 246.397 L
109.954 245.149 L
110.592 243.905 L
111.23 242.667 L
111.867 241.436 L
112.505 240.209 L
113.143 238.986 L
113.781 237.767 L
114.418 236.552 L
115.056 235.341 L
115.694 234.135 L
116.331 232.932 L
116.969 231.735 L
117.607 230.542 L
118.245 229.353 L
118.882 228.169 L
119.52 226.99 L
120.158 225.816 L
120.795 224.647 L
121.433 223.483 L
122.071 222.323 L
122.709 221.169 L
123.346 220.02 L
123.984 218.876 L
124.622 217.738 L
125.259 216.604 L
125.897 215.476 L
126.535 214.353 L
127.173 213.236 L
127.81 212.123 L
128.448 211.016 L
129.086 209.915 L
129.723 208.818 L
130.361 207.73 L
130.999 206.646 L
131.637 205.568 L
132.274 204.496 L
132.912 203.429 L
133.55 202.367 L
134.187 201.31 L
134.825 200.258 L
135.463 199.212 L
136.101 198.171 L
136.738 197.136 L
137.376 196.105 L
138.014 195.079 L
138.651 194.059 L
139.289 193.044 L
139.927 192.033 L
140.565 191.028 L
141.202 190.027 L
141.84 189.031 L
142.478 188.041 L
143.115 187.055 L
143.753 186.073 L
144.391 185.096 L
145.029 184.124 L
145.666 183.157 L
146.304 182.194 L
146.942 181.235 L
147.579 180.281 L
148.217 179.331 L
148.855 178.385 L
149.493 177.443 L
150.13 176.506 L
150.768 175.573 L
151.406 174.643 L
152.043 173.718 L
152.681 172.796 L
153.319 171.879 L
153.957 170.965 L
154.594 170.054 L
155.232 169.148 L
155.87 168.244 L
156.507 167.345 L
157.145 166.448 L
157.783 165.555 L
158.421 164.666 L
159.058 163.779 L
159.696 162.896 L
160.334 162.016 L
160.971 161.139 L
161.609 160.264 L
162.247 159.393 L
162.885 158.525 L
163.522 157.659 L
164.16 156.796 L
164.798 155.936 L
165.435 155.078 L
166.073 154.223 L
166.711 153.37 L
167.349 152.52 L
167.986 151.672 L
168.624 150.969 L
169.262 150.355 L
169.899 149.736 L
170.537 149.111 L
171.175 148.481 L
171.813 147.846 L
172.45 147.206 L
173.088 146.562 L
173.726 145.914 L
174.363 145.261 L
175.001 144.605 L
175.639 143.945 L
176.277 143.281 L
176.914 142.613 L
177.552 141.942 L
178.19 141.268 L
178.827 140.591 L
179.465 139.911 L
180.103 139.228 L
180.741 138.542 L
181.378 137.854 L
182.016 137.163 L
182.654 136.469 L
183.291 135.774 L
183.929 135.075 L
184.567 134.375 L
185.205 133.673 L
185.842 132.968 L
186.48 132.262 L
187.118 131.553 L
187.755 130.843 L
188.393 130.131 L
189.031 129.418 L
189.669 128.702 L
190.306 127.985 L
190.944 127.267 L
191.582 126.547 L
192.219 125.826 L
192.857 125.103 L
193.495 124.379 L
194.133 123.654 L
194.77 122.927 L
195.408 122.2 L
196.046 121.471 L
196.683 120.741 L
197.321 120.01 L
197.959 119.278 L
198.597 118.544 L
199.234 117.81 L
199.872 117.075 L
200.51 116.339 L
201.147 115.603 L
201.785 114.865 L
202.423 114.127 L
203.061 113.387 L
203.698 112.647 L
204.336 111.906 L
204.974 111.165 L
205.611 110.423 L
206.249 109.68 L
206.887 108.937 L
207.525 108.192 L
208.162 107.448 L
208.8 106.702 L
209.438 105.957 L
210.075 105.21 L
210.713 104.463 L
211.351 103.716 L
211.989 102.968 L
212.626 102.219 L
213.264 101.47 L
213.902 100.721 L
214.539 99.9713 L
215.177 99.2211 L
215.815 98.4705 L
216.453 97.7194 L
217.09 96.968 L
217.728 96.2163 L
218.366 95.4642 L
219.003 94.7117 L
219.641 93.9589 L
220.279 93.2057 L
220.917 92.4523 L
221.554 91.6985 L
222.192 90.9445 L
222.83 90.1902 L
223.467 89.4356 L
224.105 88.6807 L
224.743 87.9256 L
225.381 87.1702 L
226.018 86.4146 L
226.656 85.6587 L
227.294 84.9026 L
227.931 84.1463 L
228.569 83.3898 L
229.207 82.6331 L
229.845 81.8761 L
230.482 81.119 L
231.12 80.3617 L
231.758 79.6042 L
232.395 78.8466 L
233.033 78.0887 L
233.671 77.3307 L
234.309 76.5726 L
234.946 75.8142 L
235.584 75.0558 L
236.222 74.2972 L
236.859 73.5384 L
237.497 72.7795 L
238.135 72.0205 L
238.773 71.2614 L
239.41 70.5021 L
240.048 69.7427 L
240.686 68.9832 L
241.323 68.2236 L
241.961 67.4638 L
242.599 66.704 L
243.237 65.944 L
243.874 65.184 L
244.512 64.4239 L
245.15 63.6636 L
245.787 62.9033 L
246.425 62.1429 L
247.063 61.3824 L
247.701 60.6218 L
248.338 59.8612 L
248.976 59.1005 L
249.614 58.3397 L
250.251 57.5788 L
250.889 56.8178 L
251.527 56.0568 L
252.165 55.2957 L
252.802 54.5346 L
253.44 53.7734 L
254.078 53.0121 L
254.715 52.2508 L
255.353 51.4894 L
255.991 50.728 L
256.629 49.9665 L
257.266 49.205 L
257.904 48.4434 L
258.542 47.6817 L
258.971 47.1695 LE
1 1 1 C
518.538 296.062 518.538 396.858 518.538 296.062 T
518.538 296.062 518.538 396.858 518.538 396.858 T
406.437 396.858 518.538 396.858 406.437 396.858 T
406.437 396.858 518.538 396.858 518.538 396.858 T
406.437 396.858 518.538 296.062 406.437 296.062 T
406.437 396.858 518.538 396.858 518.538 296.062 T
0.5 W
[16 0] 0 setdash
0 0 0 C
406.437 296.062 LS
518.538 296.062 LE
406.437 396.858 LS
518.538 396.858 LE
406.437 396.858 LS
518.538 396.858 LE
406.437 296.062 LS
518.538 296.062 LE
406.437 296.062 LS
406.437 396.858 LE
518.538 296.062 LS
518.538 396.858 LE
518.538 296.062 LS
518.538 396.858 LE
406.437 296.062 LS
406.437 396.858 L
406.437 396.858 LE
518.538 396.858 LS
518.538 396.858 LE
518.538 296.062 LS
518.538 296.062 LE
406.437 296.062 LS
406.437 296.062 LE
(w=1) 432.482 380.059 25 /Helvetica SCL
(w=1.3) 432.482 346.46 25 /Helvetica SCL
(w=1.5) 432.482 312.861 25 /Helvetica SCL
[] 0 setdash
409.178 380.059 LS
429.741 380.059 LE
[12 4] 0 setdash
409.178 346.46 LS
429.741 346.46 LE
[4 5 1 6] 0 setdash
409.178 312.861 LS
429.741 312.861 LE
grestore
showpage
cleartomark
%%PageTrailer
%%Trailer
end
%%EOF
