$MeshFormat
2.2 0 8
$EndMeshFormat
$Nodes
142
1 0 0 0
2 1 0 0
3 1 1 0
4 0 1 0
5 0.09999999999981467 0 0
6 0.1999999999995579 0 0
7 0.2999999999992664 0 0
8 0.3999999999989749 0 0
9 0.4999999999986943 0 0
10 0.5999999999989468 0 0
11 0.69999999999921 0 0
12 0.7999999999994734 0 0
13 0.8999999999997368 0 0
14 1 0.09999999999981467 0
15 1 0.1999999999995579 0
16 1 0.2999999999992664 0
17 1 0.3999999999989749 0
18 1 0.4999999999986943 0
19 1 0.5999999999989468 0
20 1 0.69999999999921 0
21 1 0.7999999999994734 0
22 1 0.8999999999997368 0
23 0.8999999999995836 1 0
24 0.7999999999999998 1 0
25 0.7000000000006934 1 0
26 0.6000000000013869 1 0
27 0.5000000000020587 1 0
28 0.4000000000016644 1 0
29 0.3000000000012483 1 0
30 0.2000000000008322 1 0
31 0.100000000000416 1 0
32 0 0.8999999999995836 0
33 0 0.7999999999999998 0
34 0 0.7000000000006934 0
35 0 0.6000000000013869 0
36 0 0.5000000000020587 0
37 0 0.4000000000016644 0
38 0 0.3000000000012483 0
39 0 0.2000000000008322 0
40 0 0.100000000000416 0
41 0.5 0.5 0
42 0.7071428571428752 0.7071428571428401 0
43 0.292857142857163 0.7071428571428829 0
44 0.7071428571428393 0.2928571428571245 0
45 0.2928571428571166 0.2928571428571638 0
46 0.49699968040118 0.7848800793697628 0
47 0.2151199206302399 0.4969996804011856 0
48 0.7848800793697343 0.5030003195988224 0
49 0.5030003195988173 0.2151199206302686 0
50 0.829497354497414 0.8294973544973363 0
51 0.1705026455026733 0.8294973544974497 0
52 0.8294973544972866 0.1705026455025708 0
53 0.1705026455025349 0.1705026455027228 0
54 0.640710112639327 0.8488660690838694 0
55 0.1511339309161314 0.640710112639334 0
56 0.3592052746310418 0.8481751902264412 0
57 0.8481751902263315 0.6407947253690727 0
58 0.8488660690839257 0.3592898873606543 0
59 0.1518248097735569 0.3592052746310573 0
60 0.359289887360648 0.1511339309160751 0
61 0.6407947253690573 0.1518248097736666 0
62 0.5669860627177818 0.6401567944250817 0
63 0.3639360530549316 0.5720108710844389 0
64 0.640156794425081 0.4330139372822172 0
65 0.4317691437943251 0.3564328676413127 0
66 0.4315872180136938 0.6595278631988934 0
67 0.6661733647266972 0.5586987495249733 0
68 0.3457376867591684 0.4345313304880075 0
69 0.5586987495249669 0.3338266352733065 0
70 0.4604652914507276 0.8903241140725424 0
71 0.1096758859274591 0.4604652914507329 0
72 0.8903241140724609 0.5395347085494733 0
73 0.5395347085494682 0.1096758859275405 0
74 0.7390736031440464 0.9023348642130153 0
75 0.09766513578698902 0.7390736031440744 0
76 0.9023348642130204 0.2609263968558969 0
77 0.2609263968558689 0.09766513578698408 0
78 0.9005590740427145 0.740304764090288 0
79 0.2596952359098 0.9005590740428264 0
80 0.7403047640902634 0.09944092595728007 0
81 0.09944092595716837 0.2596952359098248 0
82 0.6041206249238611 0.7452829717179744 0
83 0.2557478785835854 0.6077794250775408 0
84 0.7452829717180284 0.3958793750761198 0
85 0.3958793750761136 0.2547170282819742 0
86 0.3934068318485568 0.7464813642542797 0
87 0.7473120519452107 0.6053789140938056 0
88 0.2541768294904769 0.3937748459078564 0
89 0.6053789140937944 0.2526879480547886 0
90 0.9001218934945729 0.9001218934945733 0
91 0.09987810650541903 0.9001218934945807 0
92 0.9001218934945625 0.09987810650543673 0
93 0.09987810650542893 0.09987810650542965 0
94 0.5690795758194069 0.9167792112837924 0
95 0.08322078871620857 0.56907957581941 0
96 0.9167792112837907 0.4309204241808255 0
97 0.4309204241808227 0.08322078871621014 0
98 0.7934133920321221 0.7207306519691901 0
99 0.2790669723545776 0.7932749440837036 0
100 0.7207306519691723 0.206586607967867 0
101 0.2068347548737452 0.2791283080311434 0
102 0.7277938243381868 0.8012652966217981 0
103 0.1987347033782311 0.7277938243383418 0
104 0.8012652966217936 0.2722061756617718 0
105 0.2722061756616174 0.1987347033782355 0
106 0.4871850116388043 0.5893512154037218 0
107 0.5803268259738075 0.5411241892242509 0
108 0.4096773265454885 0.491135371445602 0
109 0.5549180143374142 0.4268010624582881 0
110 0.65023210348845 0.6400172180368688 0
111 0.3538586779068587 0.6543708124739787 0
112 0.6424993192059415 0.3480475726622802 0
113 0.3470158314432938 0.3546273889992879 0
114 0.6497726583209721 0.9335960289161355 0
115 0.0664039710838658 0.6497726583209797 0
116 0.9335960289161473 0.3502273416791236 0
117 0.3502273416791162 0.06640397108385386 0
118 0.9278116756683015 0.6441268396013982 0
119 0.6441268396013893 0.07218832433169742 0
120 0.3558731603988964 0.927811675668362 0
121 0.07218832433163686 0.3558731603989056 0
122 0.8201017201097204 0.9200285942774967 0
123 0.07997140572249425 0.8201017201097339 0
124 0.9200285942774354 0.1798982798902575 0
125 0.1798982798902443 0.07997140572255566 0
126 0.9200285942777351 0.8201017201098527 0
127 0.8201017201098352 0.07997140572227604 0
128 0.1798982798901033 0.9200285942778361 0
129 0.07997140572217544 0.1798982798901216 0
130 0.5077206954042229 0.6985090438889192 0
131 0.3021029570484977 0.5086892385809004 0
132 0.7122390165456542 0.4954154029833465 0
133 0.4952375753422132 0.2872737923209753 0
134 0.5542750570469005 0.8372264891055882 0
135 0.1668753040725713 0.559069788707486 0
136 0.8372264891055879 0.4457249429531791 0
137 0.4457249429531739 0.1627735108944137 0
138 0.4275192695828766 0.8174651869807563 0
139 0.1826993614554332 0.427611273097708 0
140 0.8176728589034343 0.5721771669027934 0
141 0.5721771669027843 0.1823271410965661 0
142 0.461024257085337 0.4325419913433259 0
$EndNodes
$Elements
282
1 1 2 101 1 1 5
2 1 2 101 1 5 6
3 1 2 101 1 6 7
4 1 2 101 1 7 8
5 1 2 101 1 8 9
6 1 2 101 1 9 10
7 1 2 101 1 10 11
8 1 2 101 1 11 12
9 1 2 101 1 12 13
10 1 2 101 1 13 2
11 1 2 102 2 2 14
12 1 2 102 2 14 15
13 1 2 102 2 15 16
14 1 2 102 2 16 17
15 1 2 102 2 17 18
16 1 2 102 2 18 19
17 1 2 102 2 19 20
18 1 2 102 2 20 21
19 1 2 102 2 21 22
20 1 2 102 2 22 3
21 1 2 103 3 3 23
22 1 2 103 3 23 24
23 1 2 103 3 24 25
24 1 2 103 3 25 26
25 1 2 103 3 26 27
26 1 2 103 3 27 28
27 1 2 103 3 28 29
28 1 2 103 3 29 30
29 1 2 103 3 30 31
30 1 2 103 3 31 4
31 1 2 104 4 4 32
32 1 2 104 4 32 33
33 1 2 104 4 33 34
34 1 2 104 4 34 35
35 1 2 104 4 35 36
36 1 2 104 4 36 37
37 1 2 104 4 37 38
38 1 2 104 4 38 39
39 1 2 104 4 39 40
40 1 2 104 4 40 1
41 2 2 101 1 109 142 69
42 2 2 101 1 2 14 92
43 2 2 101 1 1 5 93
44 2 2 101 1 3 23 90
45 2 2 101 1 4 32 91
46 2 2 101 1 2 92 13
47 2 2 101 1 1 93 40
48 2 2 101 1 3 90 22
49 2 2 101 1 4 91 31
50 2 2 101 1 69 142 65
51 2 2 101 1 66 130 86
52 2 2 101 1 67 132 87
53 2 2 101 1 68 131 88
54 2 2 101 1 69 133 89
55 2 2 101 1 63 108 106
56 2 2 101 1 63 106 66
57 2 2 101 1 64 107 109
58 2 2 101 1 64 67 107
59 2 2 101 1 130 46 86
60 2 2 101 1 131 47 88
61 2 2 101 1 132 48 87
62 2 2 101 1 133 49 89
63 2 2 101 1 55 83 103
64 2 2 101 1 54 82 102
65 2 2 101 1 60 85 105
66 2 2 101 1 58 84 104
67 2 2 101 1 43 103 83
68 2 2 101 1 42 102 82
69 2 2 101 1 45 105 85
70 2 2 101 1 44 104 84
71 2 2 101 1 57 98 87
72 2 2 101 1 56 99 86
73 2 2 101 1 61 100 89
74 2 2 101 1 59 101 88
75 2 2 101 1 65 142 68
76 2 2 101 1 27 28 70
77 2 2 101 1 36 37 71
78 2 2 101 1 18 19 72
79 2 2 101 1 9 10 73
80 2 2 101 1 19 118 72
81 2 2 101 1 10 119 73
82 2 2 101 1 28 120 70
83 2 2 101 1 37 121 71
84 2 2 101 1 64 132 67
85 2 2 101 1 65 133 69
86 2 2 101 1 42 87 98
87 2 2 101 1 43 86 99
88 2 2 101 1 44 89 100
89 2 2 101 1 45 88 101
90 2 2 101 1 63 66 111
91 2 2 101 1 65 68 113
92 2 2 101 1 68 142 108
93 2 2 101 1 41 106 108
94 2 2 101 1 41 109 107
95 2 2 101 1 57 72 118
96 2 2 101 1 61 73 119
97 2 2 101 1 56 70 120
98 2 2 101 1 59 71 121
99 2 2 101 1 24 25 74
100 2 2 101 1 33 34 75
101 2 2 101 1 15 16 76
102 2 2 101 1 6 7 77
103 2 2 101 1 20 21 78
104 2 2 101 1 11 12 80
105 2 2 101 1 29 30 79
106 2 2 101 1 38 39 81
107 2 2 101 1 27 70 94
108 2 2 101 1 36 71 95
109 2 2 101 1 18 72 96
110 2 2 101 1 9 73 97
111 2 2 101 1 57 78 98
112 2 2 101 1 56 79 99
113 2 2 101 1 61 80 100
114 2 2 101 1 59 81 101
115 2 2 101 1 46 134 70
116 2 2 101 1 47 135 71
117 2 2 101 1 48 136 72
118 2 2 101 1 49 137 73
119 2 2 101 1 62 110 82
120 2 2 101 1 63 111 83
121 2 2 101 1 64 112 84
122 2 2 101 1 65 113 85
123 2 2 101 1 50 74 102
124 2 2 101 1 51 75 103
125 2 2 101 1 52 76 104
126 2 2 101 1 53 77 105
127 2 2 101 1 42 82 110
128 2 2 101 1 43 83 111
129 2 2 101 1 44 84 112
130 2 2 101 1 45 85 113
131 2 2 101 1 62 107 110
132 2 2 101 1 67 110 107
133 2 2 101 1 64 109 112
134 2 2 101 1 69 112 109
135 2 2 101 1 26 27 94
136 2 2 101 1 35 36 95
137 2 2 101 1 17 18 96
138 2 2 101 1 8 9 97
139 2 2 101 1 46 138 86
140 2 2 101 1 48 140 87
141 2 2 101 1 47 139 88
142 2 2 101 1 49 141 89
143 2 2 101 1 24 74 122
144 2 2 101 1 33 75 123
145 2 2 101 1 15 76 124
146 2 2 101 1 6 77 125
147 2 2 101 1 21 126 78
148 2 2 101 1 12 127 80
149 2 2 101 1 30 128 79
150 2 2 101 1 39 129 81
151 2 2 101 1 55 103 75
152 2 2 101 1 54 102 74
153 2 2 101 1 60 105 77
154 2 2 101 1 58 104 76
155 2 2 101 1 50 98 78
156 2 2 101 1 51 99 79
157 2 2 101 1 52 100 80
158 2 2 101 1 53 101 81
159 2 2 101 1 14 15 124
160 2 2 101 1 23 24 122
161 2 2 101 1 5 6 125
162 2 2 101 1 32 33 123
163 2 2 101 1 21 22 126
164 2 2 101 1 12 13 127
165 2 2 101 1 30 31 128
166 2 2 101 1 39 40 129
167 2 2 101 1 70 134 94
168 2 2 101 1 71 135 95
169 2 2 101 1 72 136 96
170 2 2 101 1 73 137 97
171 2 2 101 1 14 124 92
172 2 2 101 1 5 125 93
173 2 2 101 1 23 122 90
174 2 2 101 1 32 123 91
175 2 2 101 1 22 90 126
176 2 2 101 1 13 92 127
177 2 2 101 1 31 91 128
178 2 2 101 1 40 93 129
179 2 2 101 1 50 102 98
180 2 2 101 1 51 103 99
181 2 2 101 1 52 104 100
182 2 2 101 1 53 105 101
183 2 2 101 1 62 82 130
184 2 2 101 1 63 83 131
185 2 2 101 1 64 84 132
186 2 2 101 1 65 85 133
187 2 2 101 1 46 70 138
188 2 2 101 1 47 71 139
189 2 2 101 1 56 138 70
190 2 2 101 1 59 139 71
191 2 2 101 1 48 72 140
192 2 2 101 1 49 73 141
193 2 2 101 1 57 140 72
194 2 2 101 1 61 141 73
195 2 2 101 1 25 114 74
196 2 2 101 1 34 115 75
197 2 2 101 1 56 120 79
198 2 2 101 1 54 74 114
199 2 2 101 1 55 75 115
200 2 2 101 1 57 118 78
201 2 2 101 1 59 121 81
202 2 2 101 1 61 119 80
203 2 2 101 1 29 79 120
204 2 2 101 1 20 78 118
205 2 2 101 1 38 81 121
206 2 2 101 1 11 80 119
207 2 2 101 1 16 116 76
208 2 2 101 1 7 117 77
209 2 2 101 1 58 76 116
210 2 2 101 1 60 77 117
211 2 2 101 1 46 130 82
212 2 2 101 1 47 131 83
213 2 2 101 1 48 132 84
214 2 2 101 1 49 133 85
215 2 2 101 1 62 130 106
216 2 2 101 1 66 106 130
217 2 2 101 1 63 131 108
218 2 2 101 1 68 108 131
219 2 2 101 1 50 122 74
220 2 2 101 1 51 123 75
221 2 2 101 1 50 78 126
222 2 2 101 1 52 124 76
223 2 2 101 1 51 79 128
224 2 2 101 1 53 125 77
225 2 2 101 1 52 80 127
226 2 2 101 1 53 81 129
227 2 2 101 1 54 134 82
228 2 2 101 1 46 82 134
229 2 2 101 1 55 135 83
230 2 2 101 1 47 83 135
231 2 2 101 1 48 84 136
232 2 2 101 1 58 136 84
233 2 2 101 1 60 137 85
234 2 2 101 1 49 85 137
235 2 2 101 1 66 86 111
236 2 2 101 1 43 111 86
237 2 2 101 1 67 87 110
238 2 2 101 1 42 110 87
239 2 2 101 1 68 88 113
240 2 2 101 1 69 89 112
241 2 2 101 1 45 113 88
242 2 2 101 1 44 112 89
243 2 2 101 1 42 98 102
244 2 2 101 1 43 99 103
245 2 2 101 1 44 100 104
246 2 2 101 1 45 101 105
247 2 2 101 1 50 90 122
248 2 2 101 1 51 91 123
249 2 2 101 1 50 126 90
250 2 2 101 1 51 128 91
251 2 2 101 1 52 92 124
252 2 2 101 1 52 127 92
253 2 2 101 1 53 93 125
254 2 2 101 1 53 129 93
255 2 2 101 1 41 107 106
256 2 2 101 1 62 106 107
257 2 2 101 1 26 94 114
258 2 2 101 1 35 95 115
259 2 2 101 1 54 114 94
260 2 2 101 1 55 115 95
261 2 2 101 1 17 96 116
262 2 2 101 1 8 97 117
263 2 2 101 1 58 116 96
264 2 2 101 1 60 117 97
265 2 2 101 1 25 26 114
266 2 2 101 1 34 35 115
267 2 2 101 1 16 17 116
268 2 2 101 1 7 8 117
269 2 2 101 1 19 20 118
270 2 2 101 1 10 11 119
271 2 2 101 1 28 29 120
272 2 2 101 1 37 38 121
273 2 2 101 1 56 86 138
274 2 2 101 1 57 87 140
275 2 2 101 1 59 88 139
276 2 2 101 1 61 89 141
277 2 2 101 1 54 94 134
278 2 2 101 1 55 95 135
279 2 2 101 1 58 96 136
280 2 2 101 1 60 97 137
281 2 2 101 1 41 142 109
282 2 2 101 1 41 108 142
$EndElements
